{
  "project_info": {
    "project_number": "469669803268",
    "firebase_url": "https://spinner-79018.firebaseio.com",
    "project_id": "spinner-79018",
    "storage_bucket": "spinner-79018.appspot.com"
  },
  "client": [
    {
      "client_info": {
        "mobilesdk_app_id": "1:469669803268:android:6cd6e9dc3150b7b5754c51",
        "android_client_info": {
          "package_name": "com.yarner.spinner"
        }
      },
      "oauth_client": [
        {
          "client_id": "469669803268-ii8ik0e03286t2arad8r7cqbnfam3mj5.apps.googleusercontent.com",
          "client_type": 3
        }
      ],
      "api_key": [
        {
          "current_key": "AIzaSyC9BhSa6rchA3F-Mw3jZbrcRLJpcM8uk3o"
        }
      ],
      "services": {
        "appinvite_service": {
          "other_platform_oauth_client": [
            {
              "client_id": "469669803268-ii8ik0e03286t2arad8r7cqbnfam3mj5.apps.googleusercontent.com",
              "client_type": 3
            },
            {
              "client_id": "469669803268-5brmrclb8oepv6ggja66qmnfs4dc4fr3.apps.googleusercontent.com",
              "client_type": 2,
              "ios_info": {
                "bundle_id": "com.yarner.spinner"
              }
            }
          ]
        }
      },
      "admob_app_id": "ca-app-pub-5079821751618556~9257723590"
    }
  ],
  "configuration_version": "1"
}